Housing Prices Prediction
…
House 2577 is missing more values than house 2127. Hence, I will impute its missing values first based on the matching values of houses of the same GarageType and GarageYrBlt.

miss <- which(is.na(allSet$GarageCars) | is.na(allSet$GarageArea))

grpdVals1 <- allSet%>% 
        group_by(GarageType, GarageYrBlt, GarageFinish, GarageQual, GarageCond) %>% 
        summarize(medCars = median(GarageCars), meanArea = round(mean(GarageArea),0),count = n()) %>% 
        arrange(desc(count))
comp <- complete.cases(grpdVals1)
grpdVals1 <- grpdVals1[comp,]
grpdVals1

## # A tibble: 601 x 8
## # Groups:   GarageType, GarageYrBlt, GarageFinish, GarageQual [553]
##    GarageType GarageYrBlt GarageFinish GarageQual GarageCond medCars
##    <chr>            <dbl> <chr>        <chr>      <chr>        <dbl>
##  1 None                 0 None         None       None          0   
##  2 Attchd            2006 RFn          TA         TA            2.00
##  3 Attchd            2005 Fin          TA         TA            2.00
##  4 Attchd            2007 Fin          TA         TA            3.00
##  5 Attchd            2005 RFn          TA         TA            2.00
##  6 Attchd            2006 Fin          TA         TA            2.00
##  7 Attchd            2004 Fin          TA         TA            2.00
##  8 Attchd            2007 RFn          TA         TA            2.00
##  9 Attchd            2003 Fin          TA         TA            2.00
## 10 Attchd            2008 Fin          TA         TA            3.00
## # ... with 591 more rows, and 2 more variables: meanArea <dbl>,
## #   count <int>
…
